{
  "filings": [{
    "id_trans": 5005409928,
    "id_proceeding": 502800215,
    "filer": {
      "applicant_name": null,
      "author_name": "Lorrie M. Marcil",
      "lawfirm_name": "Sidley & Austin",
      "contact_name": "applicant_name",
      "contact_email_id": "1marcil@sidley.com",
      "address": {
        "line_1": "1722 Eye Street, N.W.",
        "line_2": null,
        "city": "Washington",
        "state": "DC",
        "postal_code": "20006",
        "country": "US"
      }
    },
    "submission_type": {
      "id": 52,
      "value": "NOTICE OF PRE-HEARING CONFERENCE"
    },
    "submission_status": {
      "id": 40,
      "value": null
    },
    "viewing_status": "10",
    "file_numer": null,
    "subject": null,
    "delagated_authority_number": null,
    "exparte_late_filed": true,
    "date_submission": "1999-12-03 11:02:46",
    "date_filed": "1999-11-30 00:00:00",
    "date_rcpt": "1999-11-30 00:00:00",
    "date_released": null,
    "date_accepted": null,
    "date_disseminated": "1999-12-06 07:54:53",
    "confirmation_number": "1999123106368",
    "date_transmission_completed": "1999-12-03 11:02:57",
    "server_name": "izzy.fcc.gov",
    "path_info": "/prod/ecfs/SCAN_upload.hts",
    "remote_addr": "165.135.0.254",
    "remote_host": "165.135.0.254",
    "remote_ident": null,
    "remote_user": null,
    "browser": "Mozilla/4.04 [en] (Win95; I)",
    "filed_from": "S",
    "id_user": 40,
    "ruleno": null,
    "id_ruleno": null,
    "flag_migrated_from_rips": null,
    "date_pn_ex_parte": null,
    "total_page_count": 6,
    "brief_comment_flag": 0,
    "id_viewing_status": null,
    "date_modified": null,
    "bureau_id_num": null,
    "id_edocs": null,
    "report_number": null,
    "fcc_record": null,
    "date_comment_period": null,
    "date_reply_comment": null,
    "small_business_impact": null,
    "reg_flex_analysis": null
  }, {
    "id_trans": 5507918869,
    "id_proceeding": 502100099,
    "filer": {
      "applicant_name": null,
      "author_name": "M. Ann Swanson",
      "lawfirm_name": "Dow, Lohnes & Albertson",
      "contact_name": "lawfirm_name",
      "contact_email_id": "aswanson@dlalaw.com",
      "address": {
        "line_1": "1200 New Hampshire Avenue, NW",
        "line_2": "Suite 800",
        "city": "Washington",
        "state": "DC",
        "postal_code": "20036-6802",
        "country": "US"
      }
    },
    "submission_type": {
      "id": 52,
      "value": "NOTICE OF PRE-HEARING CONFERENCE"
    },
    "submission_status": {
      "id": 40,
      "value": null
    },
    "viewing_status": "10",
    "file_numer": null,
    "subject": null,
    "delagated_authority_number": null,
    "exparte_late_filed": "Y",
    "date_submission": "2001-08-24 10:27:04",
    "date_filed": "2001-08-22 00:00:00",
    "date_rcpt": "2001-08-22 00:00:00",
    "date_released": null,
    "date_accepted": null,
    "date_disseminated": "2001-08-24 17:33:35",
    "confirmation_number": "2001824187159",
    "date_transmission_completed": "2001-08-24 10:27:07",
    "server_name": "izzy.fcc.gov",
    "path_info": "/prod/ecfs/SCAN_upload.hts",
    "remote_addr": "165.135.0.254",
    "remote_host": "165.135.0.254",
    "remote_ident": null,
    "remote_user": null,
    "browser": "Mozilla/4.06 [en] (Win98; U)",
    "filed_from": "S",
    "id_user": 45,
    "ruleno": null,
    "id_ruleno": null,
    "flag_migrated_from_rips": null,
    "date_pn_ex_parte": null,
    "intl_address": null,
    "total_page_count": 5,
    "brief_comment_flag": 0,
    "id_viewing_status": null,
    "date_modified": null,
    "bureau_id_num": null,
    "id_edocs": null,
    "report_number": null,
    "fcc_record": null,
    "date_comment_period": null,
    "date_reply_comment": null,
    "small_business_impact": null,
    "reg_flex_analysis": null
  }, {
    "id_trans": 5508354352,
    "id_proceeding": 1006300832,
    "filer": {
      "applicant_name": null,
      "author_name": "Barry D. Wood",
      "lawfirm_name": "Wood, Maines & Brown Chartered",
      "contact_name": "author_name",
      "contact_email_id": null,
      "address": {
        "line_1": "1827 Jefferson Place, NW",
        "line_2": null,
        "city": "Washington",
        "state": "DC",
        "postal_code": "20036",
        "country": "US"
      }
    },
    "submission_type": {
      "id": 110,
      "value": "SUPPLEMENT"
    },
    "submission_status": {
      "id": 40,
      "value": null
    },
    "viewing_status": "10",
    "file_numer": null,
    "subject": null,
    "delagated_authority_number": null,
    "exparte_late_filed": "N",
    "date_submission": "2002-07-15 15:20:24",
    "date_filed": "2002-07-11 00:00:00",
    "date_rcpt": "2002-07-11 00:00:00",
    "date_released": null,
    "date_accepted": null,
    "date_disseminated": "2002-07-15 16:11:01",
    "confirmation_number": "2002715594927",
    "date_transmission_completed": "2002-07-15 15:20:44",
    "server_name": "fccweb01w",
    "path_info": null,
    "remote_addr": "165.135.208.226",
    "remote_host": "165.135.208.226",
    "remote_ident": null,
    "remote_user": null,
    "browser": "Mozilla/5.0 (Windows; U; Win98; en-US; rv:0.9.4) Gecko/20011128 Netscape6/6.2.1",
    "filed_from": "S",
    "id_user": 47,
    "ruleno": null,
    "id_ruleno": null,
    "flag_migrated_from_rips": null,
    "date_pn_ex_parte": null,
    "intl_address": null,
    "total_page_count": 5,
    "brief_comment_flag": 0,
    "id_viewing_status": null,
    "date_modified": null,
    "bureau_id_num": null,
    "id_edocs": null,
    "report_number": null,
    "fcc_record": null,
    "date_comment_period": null,
    "date_reply_comment": null,
    "small_business_impact": null,
    "reg_flex_analysis": null
  }, {
    "id_trans": 5513485997,
    "id_proceeding": 1009300906,
    "filer": {
      "applicant_name": null,
      "author_name": "Richard L. Sippel",
      "lawfirm_name": "FCC",
      "contact_name": "applicant_name",
      "contact_email_id": null,
      "address": {
        "line_1": "445 12th Street SW",
        "line_2": null,
        "city": "Washington",
        "id_state": 8,
        "postal_code": "20554",
        "country": "US"
      }
    },
    "submission_type": {
      "id": 52,
      "value": "NOTICE OF PRE-HEARING CONFERENCE"
    },
    "submission_status": {
      "id": 40,
      "value": null
    },
    "viewing_status": "10",
    "file_numer": null,
    "subject": null,
    "delagated_authority_number": "06M-11",
    "exparte_late_filed": "N",
    "date_submission": "2006-05-03 14:34:56",
    "date_filed": null,
    "date_rcpt": "2006-04-21 00:00:00",
    "date_released": "2006-04-24 00:00:00",
    "date_accepted": null,
    "date_disseminated": "2006-05-03 14:35:42",
    "confirmation_number": "200653517707",
    "date_transmission_completed": "2006-05-03 14:35:00",
    "server_name": "fccweb01w.fcc.gov",
    "path_info": null,
    "remote_addr": "165.135.208.134",
    "remote_host": "165.135.208.134",
    "remote_ident": null,
    "remote_user": null,
    "browser": "Mozilla/4.0 (compatible; MSIE 6.0; Windows NT 5.0)",
    "filed_from": "S",
    "id_user": 68,
    "ruleno": null,
    "id_ruleno": null,
    "flag_migrated_from_rips": null,
    "date_pn_ex_parte": null,
    "intl_address": null,
    "total_page_count": 2,
    "brief_comment_flag": 0,
    "id_viewing_status": null,
    "date_modified": null,
    "bureau_id_num": null,
    "id_edocs": null,
    "report_number": null,
    "fcc_record": null,
    "date_comment_period": null,
    "date_reply_comment": null,
    "small_business_impact": null,
    "reg_flex_analysis": null
  }],
  "_metadata": {
    "response": {
      "time": "2014-12-07T14:12:43.511Z",
      "pagination": {
        "page": 3,
        "per_page": 9,
        "page_count": 100,
        "total_count": 900
      }
    },
    "request": {
      "user": null,
      "ip": "192.168.1.111",
      "time": "2014-12-07T14:12:42.823Z",
      "params": null
    }
  }
}
