{
  "holidays": [{
    "id" : 15,
    "holiday_date" : "2002-01-01 00:00:00",
    "holiday_description" : "New Year's Day",
    "holiday_type" : "L",
    "next_bus_date" : "Jan  2 2002 12:00:00:000AM"
  },
  {
    "id" : 16,
    "holiday_date" : "2002-01-21 00:00:00",
    "holiday_description" : "Martin L. King, Jr. Day",
    "holiday_type" : "L",
    "next_bus_date" : "Jan 22 2002 12:00:00:000AM"
  },
  {
    "id" : 17,
    "holiday_date" : "2002-02-18 00:00:00",
    "holiday_description" : "President's Day",
    "holiday_type" : "L",
    "next_bus_date" : "Feb 19 2002 12:00:00:000AM"
  },
  {
    "id" : 18,
    "holiday_date" : "2002-05-27 00:00:00",
    "holiday_description" : "Memorial Day",
    "holiday_type" : "L",
    "next_bus_date" : "May 28 2002 12:00:00:000AM"
  },
  {
    "id" : 19,
    "holiday_date" : "2002-07-04 00:00:00",
    "holiday_description" : "Indepdendence Day",
    "holiday_type" : "L",
    "next_bus_date" : "Jul  5 2002 12:00:00:000AM"
  },
  {
    "id" : 20,
    "holiday_date" : "2002-09-02 00:00:00",
    "holiday_description" : "Labor Day",
    "holiday_type" : "L",
    "next_bus_date" : "Sep  3 2002 12:00:00:000AM"
  },
  {
    "id" : 21,
    "holiday_date" : "2002-10-14 00:00:00",
    "holiday_description" : "Columbus Day",
    "holiday_type" : "L",
    "next_bus_date" : "Oct 15 2002 12:00:00:000AM"
  },
  {
    "id" : 22,
    "holiday_date" : "2002-11-11 00:00:00",
    "holiday_description" : "Veteran's Day Observed",
    "holiday_type" : "L",
    "next_bus_date" : "Nov 12 2002 12:00:00:000AM"
  },
  {
    "id" : 23,
    "holiday_date" : "2002-11-28 00:00:00",
    "holiday_description" : "Thanksgiving Day",
    "holiday_type" : "L",
    "next_bus_date" : "Nov 29 2002 12:00:00:000AM"
  },
  {
    "id" : 24,
    "holiday_date" : "2001-12-25 00:00:00",
    "holiday_description" : "Christmas Day",
    "holiday_type" : "L",
    "next_bus_date" : "Dec 26 2001 12:00:00:000AM"
  },
  {
    "id" : 25,
    "holiday_date" : "2001-12-24 00:00:00",
    "holiday_description" : "Christmas Eve",
    "holiday_type" : "L",
    "next_bus_date" : "Dec 26 2001 12:00:00:000AM"
  },
  {
    "id" : 31,
    "holiday_date" : "2011-01-17 00:00:00",
    "holiday_description" : "Martin L. King, Jr. Day",
    "holiday_type" : "L",
    "next_bus_date" : "Jan 18 2011 12:00:00:000AM"
  },
  {
    "id" : 32,
    "holiday_date" : "2011-02-21 00:00:00",
    "holiday_description" : "Presidents Day",
    "holiday_type" : "L",
    "next_bus_date" : "Feb 22 2011 12:00:00:000AM"
  },
  {
    "id" : 33,
    "holiday_date" : "2011-05-30 00:00:00",
    "holiday_description" : "Memorial Day",
    "holiday_type" : "L",
    "next_bus_date" : "May 31 2011 12:00:00:000AM"
  },
  {
    "id" : 34,
    "holiday_date" : "2011-07-04 00:00:00",
    "holiday_description" : "Indepdendence Day",
    "holiday_type" : "L",
    "next_bus_date" : "Jul  5 2011 12:00:00:000AM"
  },
  {
    "id" : 35,
    "holiday_date" : "2011-09-05 00:00:00",
    "holiday_description" : "Labor Day",
    "holiday_type" : "L",
    "next_bus_date" : "Sep  6 2011 12:00:00:000AM"
  },
  {
    "id" : 36,
    "holiday_date" : "2011-10-10 00:00:00",
    "holiday_description" : "Columbus Day Observed",
    "holiday_type" : "L",
    "next_bus_date" : "Oct 11 2011 12:00:00:000AM"
  },
  {
    "id" : 37,
    "holiday_date" : "2011-11-11 00:00:00",
    "holiday_description" : "Veterans Day",
    "holiday_type" : "L",
    "next_bus_date" : "Nov 14 2011 12:00:00:000AM"
  },
  {
    "id" : 38,
    "holiday_date" : "2011-11-24 00:00:00",
    "holiday_description" : "Thanksgiving Day",
    "holiday_type" : "L",
    "next_bus_date" : "Nov 25 2011 12:00:00:000AM"
  },
  {
    "id" : 39,
    "holiday_date" : "2011-12-26 00:00:00",
    "holiday_description" : "Christmas Day Observed",
    "holiday_type" : "L",
    "next_bus_date" : "Dec 27 2011 12:00:00:000AM"
  },
  {
    "id" : 40,
    "holiday_date" : "2012-01-02 00:00:00",
    "holiday_description" : "New Years Day Observed",
    "holiday_type" : "L",
    "next_bus_date" : "Jan  3 2012 12:00:00:000AM"
  },
  {
    "id" : 41,
    "holiday_date" : "2012-01-16 00:00:00",
    "holiday_description" : "Martin L. King, Jr. Day",
    "holiday_type" : "L",
    "next_bus_date" : "Jan 17 2012 12:00:00:000AM"
  },
  {
    "id" : 42,
    "holiday_date" : "2012-02-20 00:00:00",
    "holiday_description" : "Presidents Day Observed",
    "holiday_type" : "L",
    "next_bus_date" : "Feb 21 2012 12:00:00:000AM"
  },
  {
    "id" : 43,
    "holiday_date" : "2012-05-28 00:00:00",
    "holiday_description" : "Memorial Day",
    "holiday_type" : "L",
    "next_bus_date" : "May 29 2012 12:00:00:000AM"
  },
  {
    "id" : 44,
    "holiday_date" : "2012-07-04 00:00:00",
    "holiday_description" : "Indepdendence Day",
    "holiday_type" : "L",
    "next_bus_date" : "Jul  5 2012 12:00:00:000AM"
  },
  {
    "id" : 45,
    "holiday_date" : "2012-09-03 00:00:00",
    "holiday_description" : "Labor Day",
    "holiday_type" : "L",
    "next_bus_date" : "Sep  4 2012 12:00:00:000AM"
  },
  {
    "id" : 46,
    "holiday_date" : "2012-10-08 00:00:00",
    "holiday_description" : "Columbus Day",
    "holiday_type" : "L",
    "next_bus_date" : "Oct  9 2012 12:00:00:000AM"
  },
  {
    "id" : 47,
    "holiday_date" : "2012-11-12 00:00:00",
    "holiday_description" : "Veterans Day Observed",
    "holiday_type" : "L",
    "next_bus_date" : "Nov 13 2012 12:00:00:000AM"
  },
  {
    "id" : 48,
    "holiday_date" : "2012-11-22 00:00:00",
    "holiday_description" : "Thanksgiving Day",
    "holiday_type" : "L",
    "next_bus_date" : "Nov 23 2012 12:00:00:000AM"
  },
  {
    "id" : 49,
    "holiday_date" : "2012-12-25 00:00:00",
    "holiday_description" : "Christmas Day",
    "holiday_type" : "L",
    "next_bus_date" : "Dec 26 2012 12:00:00:000AM"
  },
  {
    "id" : 50,
    "holiday_date" : "2013-01-01 00:00:00",
    "holiday_description" : "New Years Day",
    "holiday_type" : "L",
    "next_bus_date" : "Jan  2 2013 12:00:00:000AM"
  },
  {
    "id" : 51,
    "holiday_date" : "2013-01-21 00:00:00",
    "holiday_description" : "Martin L. King, Jr. Day",
    "holiday_type" : "L",
    "next_bus_date" : "Jan 22 2013 12:00:00:000AM"
  },
  {
    "id" : 52,
    "holiday_date" : "2013-02-18 00:00:00",
    "holiday_description" : "Presidents Day",
    "holiday_type" : "L",
    "next_bus_date" : "Feb 19 2013 12:00:00:000AM"
  },
  {
    "id" : 53,
    "holiday_date" : "2013-05-27 00:00:00",
    "holiday_description" : "Memorial Day",
    "holiday_type" : "L",
    "next_bus_date" : "May 28 2013 12:00:00:000AM"
  },
  {
    "id" : 54,
    "holiday_date" : "2013-07-04 00:00:00",
    "holiday_description" : "Indepdendence Day",
    "holiday_type" : "L",
    "next_bus_date" : "Jul  5 2013 12:00:00:000AM"
  },
  {
    "id" : 55,
    "holiday_date" : "2013-09-02 00:00:00",
    "holiday_description" : "Labor Day",
    "holiday_type" : "L",
    "next_bus_date" : "Sep  3 2013 12:00:00:000AM"
  },
  {
    "id" : 56,
    "holiday_date" : "2013-10-14 00:00:00",
    "holiday_description" : "Columbus Day",
    "holiday_type" : "L",
    "next_bus_date" : "Oct 15 2013 12:00:00:000AM"
  },
  {
    "id" : 57,
    "holiday_date" : "2013-11-11 00:00:00",
    "holiday_description" : "Veterans Day",
    "holiday_type" : "L",
    "next_bus_date" : "Nov 12 2013 12:00:00:000AM"
  },
  {
    "id" : 58,
    "holiday_date" : "2013-11-28 00:00:00",
    "holiday_description" : "Thanksgiving Day",
    "holiday_type" : "L",
    "next_bus_date" : "Nov 29 2013 12:00:00:000AM"
  },
  {
    "id" : 59,
    "holiday_date" : "2013-12-25 00:00:00",
    "holiday_description" : "Christmas Day",
    "holiday_type" : "L",
    "next_bus_date" : "Dec 26 2013 12:00:00:000AM"
  },
  {
    "id" : 60,
    "holiday_date" : "2014-01-01 00:00:00",
    "holiday_description" : "New Years Day Observed",
    "holiday_type" : "L",
    "next_bus_date" : "Jan  2 2014 12:00:00:000AM"
  },
  {
    "id" : 61,
    "holiday_date" : "2014-01-20 00:00:00",
    "holiday_description" : "Martin L. King, Jr. Day",
    "holiday_type" : "L",
    "next_bus_date" : "Jan 21 2014 12:00:00:000AM"
  },
  {
    "id" : 62,
    "holiday_date" : "2014-02-17 00:00:00",
    "holiday_description" : "Presidents Day Observed",
    "holiday_type" : "L",
    "next_bus_date" : "Feb 18 2014 12:00:00:000AM"
  },
  {
    "id" : 63,
    "holiday_date" : "2014-05-26 00:00:00",
    "holiday_description" : "Memorial Day",
    "holiday_type" : "L",
    "next_bus_date" : "May 27 2014 12:00:00:000AM"
  },
  {
    "id" : 64,
    "holiday_date" : "2014-07-04 00:00:00",
    "holiday_description" : "Indepdendence Day",
    "holiday_type" : "L",
    "next_bus_date" : "Jul  7 2014 12:00:00:000AM"
  },
  {
    "id" : 65,
    "holiday_date" : "2014-09-01 00:00:00",
    "holiday_description" : "Labor Day",
    "holiday_type" : "L",
    "next_bus_date" : "Sep  2 2014 12:00:00:000AM"
  },
  {
    "id" : 66,
    "holiday_date" : "2014-10-13 00:00:00",
    "holiday_description" : "Columbus Day",
    "holiday_type" : "L",
    "next_bus_date" : "Oct 14 2014 12:00:00:000AM"
  },
  {
    "id" : 67,
    "holiday_date" : "2014-11-11 00:00:00",
    "holiday_description" : "Veterans Day",
    "holiday_type" : "L",
    "next_bus_date" : "Nov 12 2014 12:00:00:000AM"
  },
  {
    "id" : 68,
    "holiday_date" : "2014-11-27 00:00:00",
    "holiday_description" : "Thanksgiving Day",
    "holiday_type" : "L",
    "next_bus_date" : "Nov 28 2014 12:00:00:000AM"
  },
  {
    "id" : 69,
    "holiday_date" : "2014-12-25 00:00:00",
    "holiday_description" : "Christmas Day",
    "holiday_type" : "L",
    "next_bus_date" : "Dec 26 2014 12:00:00:000AM"
  }],
  "_metadata": {
    "response": {
      "time": "2014-12-07T14:12:43.511Z",
      "pagination": {
        "page": 3,
        "per_page": 2,
        "page_count": 500,
        "total_count": 1000
      }
    },
    "request": {
      "user": null,
      "ip": "192.168.1.111",
      "time": "2014-12-07T14:12:42.823Z",
      "params": null
    }
  }
}

