{
  "proceedings": [{
    "id": 300000,
    "proceeding_name": "RM-7264",
    "proceeding_description": "",
    "consolidated_proceeding_id": 303529,
    "date_proceeding_created": "1991-10-22 00:00:00",
    "id_bureau": 1,
    "bureau": {
      "id": 1,
      "bureau_code": "MM",
      "bureau_name": "Mass Media Bureau",
      "edocs_bureau_code": null
    },
    "flag_rulemaking_or_docket": "R",
    "flag_historical_data_exists": "N",
    "flag_archived": "N",
    "file_number": "COUNTERPROPOSAL IN MM DOCKET NO. 89-459",
    "city": "LA GRANGE, TX",
    "id_state": 47,
    "callsign": "",
    "channel": "283C3",
    "applicant_name": "FAYETTE BROADCASTING CORPORATION",
    "subject": "AMENDMENT OF FM TABLE OF ALLOTMENTS",
    "appeal": "",
    "filed_by": "R. CLARK WADLOW, ATTORNEY ON 12-11-89",
    "rule_section": "73.202(B)",
    "exparte_late_filed": "Y",
    "flag_open_close": "C",
    "date_archived": "1993-12-30 00:00:00",
    "date_closed": "1993-12-30 00:00:00",
    "date_rule_board_decision": "0000-00-00 00:00:00",
    "date_public_notice": "1990-02-06 00:00:00",
    "date_commission_decision": "0000-00-00 00:00:00",
    "date_effective": "0000-00-00 00:00:00",
    "date_reporting_and_order": "1993-12-09 00:00:00",
    "date_nprm": null,
    "date_oral_argument": "0000-00-00 00:00:00",
    "date_initial_decision": "0000-00-00 00:00:00",
    "date_designated": "0000-00-00 00:00:00",
    "location": "LA GRANGE, TX",
    "flag_internet_file": "N",
    "recent_filing_count": 0,
    "total_filing_count": 0,
    "flag_small_business_impact": "",
    "bureau_id_num": "",
    "face_card_id": null
  },  
  {
    "id": 300000,
    "proceeding_name": "RM-7264",
    "proceeding_description": "",
    "consolidated_proceeding_id": 303529,
    "date_proceeding_created": "1991-10-22 00:00:00",
    "id_bureau": 1,
    "bureau": {
      "id": 1,
      "bureau_code": "MM",
      "bureau_name": "Mass Media Bureau",
      "edocs_bureau_code": null
    },
    "flag_rulemaking_or_docket": "R",
    "flag_historical_data_exists": "N",
    "flag_archived": "N",
    "file_number": "COUNTERPROPOSAL IN MM DOCKET NO. 89-459",
    "city": "LA GRANGE, TX",
    "id_state": 47,
    "callsign": "",
    "channel": "283C3",
    "applicant_name": "FAYETTE BROADCASTING CORPORATION",
    "subject": "AMENDMENT OF FM TABLE OF ALLOTMENTS",
    "appeal": "",
    "filed_by": "R. CLARK WADLOW, ATTORNEY ON 12-11-89",
    "rule_section": "73.202(B)",
    "exparte_late_filed": "Y",
    "flag_open_close": "C",
    "date_archived": "1993-12-30 00:00:00",
    "date_closed": "1993-12-30 00:00:00",
    "date_rule_board_decision": "0000-00-00 00:00:00",
    "date_public_notice": "1990-02-06 00:00:00",
    "date_commission_decision": "0000-00-00 00:00:00",
    "date_effective": "0000-00-00 00:00:00",
    "date_reporting_and_order": "1993-12-09 00:00:00",
    "date_nprm": null,
    "date_oral_argument": "0000-00-00 00:00:00",
    "date_initial_decision": "0000-00-00 00:00:00",
    "date_designated": "0000-00-00 00:00:00",
    "location": "LA GRANGE, TX",
    "flag_internet_file": "N",
    "recent_filing_count": 0,
    "total_filing_count": 0,
    "flag_small_business_impact": "",
    "bureau_id_num": "",
    "face_card_id": null
  }],
  "_metadata": {
    "response": {
      "time": "2014-12-07T14:12:43.511Z",
      "pagination": {
        "page": 3,
        "per_page": 2,
        "page_count": 500,
        "total_count": 1000
      }
    },
    "request": {
      "user": null,
      "ip": "192.168.1.111",
      "time": "2014-12-07T14:12:42.823Z",
      "params": null
    }
  }
}
